//
// Sniper rifle
//

WeaponData
{
	// Weapon data is loaded by both the Game and Client DLLs.
	"printname"	"#HL2_SniperRifle"
	"viewmodel"				"models/weapons/v_sniper.mdl"
	"playermodel"			"models/weapons/w_sniper.mdl"
	"anim_prefix"			"sniper"
	"bucket"				"3"
	"bucket_position"		"3"

	"clip_size"				"1"
	"primary_ammo"			"SniperRound"
	"secondary_ammo"		"None"

	"default_clip"			"5"

	"weight"				"2"
	"item_flags"			"0"

	// Sounds for the weapon. There is a max of 16 sounds per category (i.e. max 16 "single_shot" sounds)
	SoundData
	{
		"special1"			"Weapon_SniperRifle.Special1"
		"special2"			"Weapon_SniperRifle.Special2"
		"reload"			"Weapon_SniperRifle.Reload"
		"reload_npc"		"Weapon_SniperRifle.NPC_Reload"
		"single_shot"		"Weapon_SniperRifle.Single"
		"single_shot_npc"	"Weapon_SniperRifle.NPC_Single"
	}

	// Weapon Sprite data is loaded by the Client DLL.
	TextureData
	{
		"weapon"
		{
				"file"		"sprites/w_icons2b"
				"x"			"0" //128
				"y"			"193" //0
				"width"		"128"
				"height"	"64"
		}
		"weapon_s"
		{
				"file"		"sprites/w_icons2b"
				"x"			"0"
				"y"			"193"
				"width"		"128"
				"height"	"64"
		}
		"ammo"
		{
				"file"		"sprites/a_icons1"
				"x"			"55"
				"y"			"30"
				"width"		"73"
				"height"	"15"
		}
		"crosshair"
		{
				"font"		"Crosshairs"
				"character"	"Q"
		}
		"autoaim"
		{
				"font"		"Crosshairs"
				"character"	"Q"
		}
		"zoom"
		{
				"font"		"Crosshairs"
				"character"	"Q"

		}
		"zoom_autoaim"
		{
				"font"		"Crosshairs"
				"character"	"Q"
		}
	}
}

